<svg width="277" height="261" viewBox="0 0 277 261" fill="none" xmlns="http://www.w3.org/2000/svg">
<path d="M138 239C202.065 239 254 187.065 254 123C254 58.935 202.065 7 138 7C73.935 7 22 58.935 22 123C22 187.065 73.935 239 138 239Z" fill="#F9F9F9"/>
<path d="M216.02 239.548H120.022C106.683 239.548 95.7698 228.614 95.7698 215.249V24.2991C95.7698 10.9346 106.683 0 120.022 0H216.02C229.359 0 240.273 10.9346 240.273 24.2991V215.249C240.273 228.614 229.359 239.548 216.02 239.548Z" fill="#1D115E"/>
<path d="M213.595 6H191.566C183.078 10.6573 176.408 20.5794 167.92 20.5794C159.432 20.5794 152.762 10.4548 144.274 6H122.447C111.331 6 102.237 15.1121 102.237 26.2492V211.327C102.237 222.464 111.331 231.576 122.447 231.576H213.595C224.711 231.576 233.805 222.464 233.805 211.327V26.2492C233.805 15.1121 224.711 6 213.595 6Z" fill="url(#paint0_linear)"/>
<g style="mix-blend-mode:multiply" opacity="0.25">
<path d="M138 239C202.065 239 254 187.065 254 123C254 58.935 202.065 7 138 7C73.935 7 22 58.935 22 123C22 187.065 73.935 239 138 239Z" fill="url(#paint1_radial)"/>
<path d="M138 239C202.065 239 254 187.065 254 123C254 58.935 202.065 7 138 7C73.935 7 22 58.935 22 123C22 187.065 73.935 239 138 239Z" fill="url(#paint2_linear)"/>
</g>
<path d="M132.83 85.2025L59.0631 85C55.8294 85 53 87.6324 53 91.0748V131.168C53 134.408 55.6273 137.243 59.0631 137.243L132.83 137.445C136.064 137.445 138.893 134.813 138.893 131.371V91.2773C138.893 88.0374 136.064 85.2025 132.83 85.2025Z" fill="#FF746F"/>
<path d="M130.405 102.414H95.0373C94.2289 102.414 93.6226 103.022 93.6226 103.832C93.6226 104.642 94.2289 105.249 95.0373 105.249H130.405C131.213 105.249 131.82 104.642 131.82 103.832C132.022 103.022 131.213 102.414 130.405 102.414Z" fill="white"/>
<path d="M122.523 109.704H95.0373C94.2289 109.704 93.6226 110.311 93.6226 111.121C93.6226 111.931 94.2289 112.539 95.0373 112.539H122.321C123.129 112.539 123.736 111.931 123.736 111.121C123.938 110.514 123.332 109.704 122.523 109.704Z" fill="white"/>
<path d="M118.885 116.791H95.0373C94.2289 116.791 93.6226 117.399 93.6226 118.209V118.411C93.6226 119.221 94.2289 119.829 95.0373 119.829H118.885C119.694 119.829 120.3 119.221 120.3 118.411V118.209C120.3 117.399 119.694 116.791 118.885 116.791Z" fill="white"/>
<path d="M78.869 103.629C78.869 106.869 76.2416 109.502 73.2101 109.502C70.1786 109.502 67.5513 106.869 67.5513 103.629C67.5513 100.389 70.1786 97.7571 73.2101 97.7571C76.4438 97.7571 78.869 100.389 78.869 103.629Z" fill="white"/>
<path d="M80.4858 113.754L77.0501 112.742C74.6248 111.932 71.9975 111.932 69.5723 112.742L66.1366 113.956C63.9134 114.361 62.4987 116.386 62.4987 118.614V124.081H70.987H75.4332H83.9215V118.614C84.1236 116.386 82.5068 114.361 80.4858 113.754Z" fill="white"/>
<path d="M12.9099 103.395C15.3218 101.442 18.3386 100.149 22.4026 99.3879C22.8451 99.2596 22.8451 99.2596 23.2877 99.1312C36.527 97.378 49.8986 103.103 63.041 116.828C73.0785 126.861 81.1466 138.718 88.654 152.407C84.1403 148.706 78.8227 145.655 72.62 142.862C64.3228 139.005 55.3837 136.588 46.4446 134.17C39.519 132.421 32.5123 130.278 25.8671 127.613C20.2691 125.479 14.5901 122.951 11.2419 118.076C8.57958 114.255 8.60957 107.565 12.9099 103.395Z" fill="#FFD728"/>
<path d="M0.731897 194.549C2.0561 192.132 4.31229 189.851 7.50048 187.707C7.92792 187.583 7.92792 187.583 8.27825 187.074C19.6297 180.531 34.9338 180.163 52.9082 186.343C66.4958 190.946 79.9645 197.211 92.6135 206.154C86.9444 204.95 80.4976 204.378 73.273 204.438C63.8341 204.733 54.5494 205.797 45.3418 207.245C38.2715 208.074 30.7736 209.027 23.6262 209.471C17.8381 209.928 11.0409 209.864 5.99543 207.259C1.53158 205.299 -1.41196 199.644 0.731897 194.549Z" fill="#FFD728"/>
<path d="M32.8635 240.146C32.1348 238.74 32.1794 236.708 33.422 233.927C33.422 233.927 33.346 233.545 33.7707 233.423C36.7252 225.706 45.232 218.812 58.1689 213.872C68.1332 209.788 78.8261 207.11 90.0958 205.074C86.4257 206.939 82.483 209.691 78.6163 212.825C73.6276 217.089 68.7149 221.736 64.2269 226.26C60.8608 229.653 57.1462 233.551 53.2795 236.684C50.2621 239.573 46.3194 242.325 42.4973 243.427C39.0239 244.024 34.397 243.338 32.8635 240.146Z" fill="#FFD728"/>
<path d="M140.158 245.575C140.158 245.575 138.798 164.775 26.1913 110.452" stroke="#324893" stroke-miterlimit="10" stroke-linecap="round" stroke-linejoin="round"/>
<path d="M140.261 245.082C140.261 245.082 107.585 186.437 20.4922 197.761" stroke="#324893" stroke-miterlimit="10" stroke-linecap="round" stroke-linejoin="round"/>
<path d="M90.9935 205.278C90.9935 205.278 74.7849 206.292 40.7056 233.902" stroke="#324893" stroke-miterlimit="10" stroke-linecap="round" stroke-linejoin="round"/>
<path fill-rule="evenodd" clip-rule="evenodd" d="M254 123C254 187.065 202.065 239 138 239C123.188 239 109.024 236.224 96 231.163V261H254V123ZM253.894 118H254V123C254 121.325 253.964 119.658 253.894 118Z" fill="white"/>
<path d="M210.016 129C191.695 129 176.794 143.93 176.794 162.286V194.347H243.481V162.286C243.481 143.93 228.336 129 210.016 129ZM187.787 183.334V162.286C187.787 150.048 197.802 140.014 210.016 140.014C222.229 140.014 232.245 150.048 232.245 162.286V183.334H187.787Z" fill="#1D115E"/>
<path d="M235.664 242.073H184.611C175.573 242.073 168 234.731 168 225.43V191.41C168 182.355 175.328 174.768 184.611 174.768H235.664C244.702 174.768 252.275 182.11 252.275 191.41V225.43C252.031 234.731 244.702 242.073 235.664 242.073Z" fill="#00BA93"/>
<path d="M222.229 203.892C222.229 197.04 216.855 191.655 210.015 191.655C203.175 191.655 197.801 197.04 197.801 203.892C197.801 208.543 200.488 212.703 204.397 214.661V227.878H215.633V214.661C219.542 212.703 222.229 208.543 222.229 203.892Z" fill="#1D115E"/>
<path d="M271.392 29.7414L181.255 29.5389C178.425 29.5389 176.202 31.7664 176.202 34.6012L176 85.4268C176 88.2617 178.223 90.4891 181.053 90.4891L271.19 90.6916C274.019 90.6916 276.243 88.4642 276.243 85.6293L276.445 34.8037C276.445 31.9688 274.221 29.7414 271.392 29.7414Z" fill="#3741F5"/>
<path d="M261.085 55.6605H222.281C220.462 49.1808 214.399 44.5234 207.326 44.5234C198.635 44.5234 191.764 51.6107 191.764 60.1153C191.764 68.62 198.838 75.7072 207.326 75.7072C214.399 75.7072 220.462 70.8474 222.281 64.3677H242.694V73.6823H250.576V64.3677H252.395V73.6823H260.277V64.3677H261.287V55.6605H261.085ZM207.326 67.6076C203.082 67.6076 199.848 64.1652 199.848 60.1153C199.848 55.863 203.284 52.6231 207.326 52.6231C211.57 52.6231 214.804 56.0655 214.804 60.1153C214.804 64.1652 211.368 67.6076 207.326 67.6076Z" fill="white"/>
<path d="M260.275 65.3925L260.275 64.38L252.393 64.38L252.393 65.3925L260.275 65.3925Z" fill="#D7E0FF"/>
<path d="M250.575 65.3925L250.575 64.38L242.693 64.38L242.693 65.3925L250.575 65.3925Z" fill="#D7E0FF"/>
<path d="M217.027 60.1153C217.027 59.7103 217.229 59.5078 217.633 59.5078H258.053C258.458 59.5078 258.66 59.7103 258.66 60.1153C258.66 60.5203 258.458 60.7228 258.053 60.7228H217.633C217.229 60.7228 217.027 60.3178 217.027 60.1153Z" fill="#D7E0FF"/>
<circle cx="207.315" cy="60.15" r="7.5" stroke="#D7E0FF"/>
<defs>
<linearGradient id="paint0_linear" x1="168.021" y1="6" x2="168.021" y2="231.576" gradientUnits="userSpaceOnUse">
<stop stop-color="white"/>
<stop offset="1" stop-color="#E8F3FF"/>
</linearGradient>
<radialGradient id="paint1_radial" cx="0" cy="0" r="1" gradientUnits="userSpaceOnUse" gradientTransform="translate(138 123) rotate(90) scale(116)">
<stop offset="0.807292" stop-color="white"/>
<stop offset="1" stop-color="#2E76A3"/>
</radialGradient>
<linearGradient id="paint2_linear" x1="142" y1="7" x2="138" y2="239" gradientUnits="userSpaceOnUse">
<stop offset="0.474893" stop-color="white"/>
<stop offset="1" stop-color="white" stop-opacity="0"/>
</linearGradient>
</defs>
</svg>
