<?xml version="1.0" encoding="UTF-8"?>
<svg width="160px" height="60px" viewBox="0 0 160 60" version="1.1" xmlns="http://www.w3.org/2000/svg" xmlns:xlink="http://www.w3.org/1999/xlink">
    <!-- Generator: Sketch 55.2 (78181) - https://sketchapp.com -->
    <title></title>
    <desc></desc>
    <g id="Symbols" stroke="none" stroke-width="1" fill="none" fill-rule="evenodd">
        <g id="Menu---Web---Dark" transform="translate(-360.000000, -10.000000)" fill="#FFFFFF" fill-rule="nonzero">
            <g id="Menu">
                <g id="Logo" transform="translate(360.000000, 10.000000)">
                    <g id="Group">
                        <path d="M21.5999997,0 L38.4000003,0 C50.3293507,-2.19138613e-15 60,9.67064929 60,21.5999997 L60,38.4000003 C60,50.3293507 50.3293507,60 38.4000003,60 L21.5999997,60 C9.67064929,60 8.56635144e-15,50.3293507 7.10542736e-15,38.4000003 L7.10542736e-15,21.5999997 C5.64450327e-15,9.67064929 9.67064929,2.19138613e-15 21.5999997,0 Z M30.6600496,37.5408843 C31.7915633,37.3591763 32.7344913,36.9957601 33.7717122,36.54149 C35.280397,35.8146578 36.5062035,34.7244094 37.4491315,33.270745 C38.2977667,31.9079346 38.7692308,30.2725621 38.7692308,28.5463356 C38.7692308,27.1835251 38.4863524,26.0932768 37.8263027,25.0938825 C37.1662531,24.0944882 36.3176179,23.2768019 35.1861042,22.7316778 C34.808933,22.5499697 34.337469,22.3682617 33.866005,22.2774076 L34.6203474,18.4615385 L30.7543424,18.4615385 L30.0942928,21.9139915 L24.4367246,21.9139915 L21.2307692,37.6317383 L26.7940447,37.6317383 L25.9454094,41.4476075 L29.8114144,41.4476075 L30.6600496,37.5408843 Z M23.7766749,34.3609933 L26.2282878,33.6341611 L27.8312655,26.0024228 L25.662531,25.2755906 L28.1141439,25.2755906 L30.5657568,25.2755906 C31.6972705,25.2755906 32.6401985,25.6390067 33.3002481,26.2749849 C33.9602978,27.0018171 34.337469,27.9103574 34.337469,29.0006057 C34.337469,30 34.1488834,30.9085403 33.6774194,31.7262265 C33.2059553,32.5439128 32.6401985,33.179891 31.8858561,33.6341611 C31.1315136,34.0884313 30.2828784,34.3609933 29.3399504,34.3609933 L26.133995,34.3609933 L23.7766749,34.3609933 Z" id="Combined-Shape"></path>
                    </g>
                    <path d="M83.0821527,26.0504686 C82.6401881,25.2637363 81.9330447,24.5644186 80.9607225,24.1273451 C80.0767933,23.6902715 79.0160782,23.4280274 77.7785773,23.4280274 L72.5633948,23.4280274 L70,36.2779893 L75.74554,36.2779893 C77.2482197,36.2779893 78.6625065,35.9283305 79.8116145,35.3164276 C81.0491154,34.7045246 82.0214376,33.8303775 82.728581,32.6939864 C83.4357244,31.5575952 83.7892961,30.3337893 83.7892961,28.8477392 C83.7892961,27.7987628 83.5241173,26.9246157 83.0821527,26.0504686 Z M79.8098082,31.4778588 C79.4548654,32.1807203 79.0111869,32.6200087 78.390037,33.0592971 C77.768887,33.4107279 77.1477371,33.5864433 76.3491158,33.5864433 L73.8645161,33.5864433 L75.3730231,26.2063976 L77.3252085,26.2063976 C78.2125656,26.2063976 78.9224512,26.4699706 79.4548654,27.0849744 C79.9872796,27.6121206 80.2534867,28.4028397 80.2534867,29.2814166 C80.3422224,30.0721358 80.164751,30.862855 79.8098082,31.4778588 Z M93.6063093,23.5148515 L90.1599282,23.5148515 L82.4718474,36.2779893 L85.9182285,36.2779893 L87.1553909,34.0051018 L92.7226218,34.0051018 L93.2528343,36.2779893 L96.8759528,36.2779893 L93.6063093,23.5148515 Z M88.6199412,31.5026657 L91.1670086,26.814166 L92.1331376,31.5026657 L88.6199412,31.5026657 Z M107.305008,29.6776353 L110.223112,29.6776353 L109.250411,34.7801304 C108.454564,35.3079748 107.658718,35.659871 106.686016,36.0117672 C105.713315,36.2756894 104.829041,36.4516375 103.944767,36.4516375 C102.706783,36.4516375 101.645655,36.1877153 100.672953,35.659871 C99.7002521,35.1320267 98.992833,34.4282342 98.4622686,33.4605196 C97.9317042,32.5807791 97.666422,31.5250904 97.666422,30.3814277 C97.666422,29.0618169 98.0201316,27.8301801 98.7275508,26.7744915 C99.4349699,25.7188028 100.407671,24.8390623 101.557227,24.1352698 C102.706783,23.5194514 104.033194,23.1675552 105.53646,23.1675552 C106.509161,23.1675552 107.393435,23.3435033 108.366137,23.6953995 C109.250411,24.0472958 110.046257,24.487166 110.665249,25.1029844 L108.542991,27.4782839 C108.100855,27.0384136 107.658718,26.6865174 107.039726,26.4225952 C106.420734,26.1586731 105.89017,26.070699 105.271178,26.070699 C104.563759,26.070699 103.85634,26.2466471 103.237348,26.5985433 C102.618356,26.9504396 102.087792,27.4782839 101.734082,28.0941023 C101.380373,28.7099207 101.203518,29.4137131 101.203518,30.2054796 C101.203518,30.821298 101.380373,31.4371164 101.645655,31.9649607 C101.910937,32.492805 102.353074,32.9326753 102.795211,33.1965974 C103.325775,33.4605196 103.85634,33.6364677 104.475331,33.6364677 C105.094323,33.6364677 105.89017,33.4605196 106.686016,33.0206493 L107.305008,29.6776353 Z M122.331164,23.7822236 C123.215648,24.1341198 123.923236,24.7499382 124.542375,25.3657566 L122.331164,27.7410561 C121.97737,27.2132117 121.535128,26.7733415 121.004438,26.5094193 C120.473747,26.1575231 119.943056,26.069549 119.323917,26.069549 C118.61633,26.069549 117.997191,26.2454971 117.378052,26.5973934 C116.758913,26.9492896 116.316671,27.4771339 115.962877,28.0929523 C115.609083,28.7087707 115.432186,29.4125631 115.432186,30.1163555 C115.432186,30.7321739 115.609083,31.3479923 115.874429,31.8758366 C116.139774,32.403681 116.493568,32.7555772 117.024258,33.1074734 C117.4665,33.3713956 118.085639,33.5473437 118.61633,33.5473437 C119.147021,33.5473437 119.677711,33.3713956 120.29685,33.1074734 C120.915989,32.8435512 121.44668,32.491655 121.97737,32.0517848 L123.746339,34.1631621 C122.950303,34.8669545 122.065819,35.4827729 121.092886,35.9226432 C120.119953,36.3625134 119.147021,36.5384615 118.174088,36.5384615 C117.024258,36.5384615 115.962877,36.2745394 114.989944,35.746695 C114.017012,35.2188507 113.309424,34.5150583 112.778733,33.5473437 C112.248043,32.6676031 111.982698,31.6119145 111.982698,30.4682518 C111.982698,29.1486409 112.336491,27.9170042 112.95563,26.7733415 C113.663218,25.7176528 114.547702,24.8379123 115.697532,24.2220939 C116.847361,23.6062755 118.174088,23.2543793 119.500814,23.2543793 C120.562195,23.2543793 121.44668,23.4303274 122.331164,23.7822236 Z M138.221062,26.1575231 C137.687967,25.2777825 136.888325,24.486016 135.999834,24.0461458 C135.022493,23.5183014 133.956304,23.2543793 132.712417,23.2543793 C131.290831,23.2543793 130.046943,23.6062755 128.803056,24.2220939 C127.648017,24.8379123 126.670677,25.7176528 125.959884,26.7733415 C125.249091,27.8290301 124.893695,29.0606669 124.893695,30.4682518 C124.893695,31.6119145 125.160242,32.6676031 125.693337,33.5473437 C126.226431,34.4270842 126.937224,35.2188507 127.914564,35.746695 C128.891905,36.2745394 129.958094,36.5384615 131.201982,36.5384615 C132.623567,36.5384615 133.867455,36.1865653 135.111343,35.5707469 C136.266381,34.9549286 137.243721,34.075188 137.954514,32.9315253 C138.665307,31.7878626 139.020704,30.6441999 139.020704,29.236615 C139.109553,28.0929523 138.754156,27.0372636 138.221062,26.1575231 Z M135.074374,31.5662693 C134.718717,32.1811049 134.274146,32.7081068 133.651746,33.0594414 C133.029347,33.410776 132.406947,33.5864433 131.695633,33.5864433 C131.073234,33.5864433 130.539748,33.410776 130.095177,33.147275 C129.561692,32.8837741 129.206035,32.4446058 128.939292,31.9176039 C128.672549,31.390602 128.494721,30.7757665 128.494721,30.1609309 C128.494721,29.4582617 128.672549,28.7555926 129.028206,28.0529234 C129.383863,27.4380878 129.917349,26.9110859 130.539748,26.5597513 C131.162148,26.2084167 131.784547,26.0327494 132.495861,26.0327494 C133.118261,26.0327494 133.562832,26.2084167 134.096317,26.4719177 C134.540889,26.7354186 134.98546,27.1745869 135.252202,27.7015888 C135.518945,28.2285907 135.696774,28.8434262 135.696774,29.4582617 C135.607859,30.2487646 135.430031,30.9514338 135.074374,31.5662693 Z M145.445894,23.5148515 L142.86081,36.2779893 L139.47346,36.2779893 L142.058543,23.5148515 L145.445894,23.5148515 Z M156.669378,23.5148515 L159.762169,23.5148515 L157.199571,36.2779893 L154.283511,36.2779893 L150.041969,28.6725579 L148.45139,36.2779893 L145.270234,36.2779893 L147.832832,23.5148515 L150.748892,23.5148515 L155.0788,31.2077017 L156.669378,23.5148515 Z" id="text"></path>
                </g>
            </g>
        </g>
    </g>
</svg>