<svg width="282" height="271" viewBox="0 0 282 271" fill="none" xmlns="http://www.w3.org/2000/svg">
<path d="M131 254C195.065 254 247 202.065 247 138C247 73.935 195.065 22 131 22C66.935 22 15 73.935 15 138C15 202.065 66.935 254 131 254Z" fill="#F9F9F9"/>
<path d="M173.52 37.1067H146.153C142.916 37.1067 140.267 34.4562 140.267 31.2167V5.88995C140.267 2.65048 142.916 0 146.153 0H173.52C176.757 0 179.405 2.65048 179.405 5.88995V31.2167C179.405 34.4562 176.757 37.1067 173.52 37.1067Z" fill="#C4D0DA"/>
<path d="M219.131 259.452H100.541C87.5936 259.452 77 248.85 77 235.893V38.8737C77 25.9158 87.5936 15.3138 100.541 15.3138H219.131C232.079 15.3138 242.672 25.9158 242.672 38.8737V235.893C242.672 248.85 232.079 259.452 219.131 259.452Z" fill="#1D115E"/>
<path d="M218.26 256H100.704C90.9568 256 82.9819 247.9 82.9819 238V55C82.9819 45.1 90.9568 37 100.704 37H218.26C228.007 37 235.982 45.1 235.982 55V238C235.982 247.9 228.007 256 218.26 256Z" fill="white"/>
<path d="M188.822 43.5857H130.851C127.614 43.5857 124.966 40.9352 124.966 37.6957V14.7249C124.966 11.4854 127.614 8.83496 130.851 8.83496H188.822C192.058 8.83496 194.707 11.4854 194.707 14.7249V37.6957C194.707 40.9352 192.058 43.5857 188.822 43.5857Z" fill="#324893"/>
<path opacity="0.5" d="M122.205 105.725C134.069 105.725 143.686 96.0997 143.686 84.2265C143.686 72.3533 134.069 62.7281 122.205 62.7281C110.341 62.7281 100.723 72.3533 100.723 84.2265C100.723 96.0997 110.341 105.725 122.205 105.725Z" fill="#C4D0DA"/>
<path opacity="0.5" d="M122.305 121.331L99 144.654L122.305 167.976L145.609 144.654L122.305 121.331Z" fill="#C4D0DA"/>
<path opacity="0.5" d="M141.626 188.184H103.372V226.469H141.626V188.184Z" fill="#C4D0DA"/>
<path d="M166.457 74.5079H210.891" stroke="#324893" stroke-width="1.8" stroke-miterlimit="10" stroke-linecap="round" stroke-linejoin="round"/>
<path d="M166.457 80.6924H210.891" stroke="#324893" stroke-width="1.8" stroke-miterlimit="10" stroke-linecap="round" stroke-linejoin="round"/>
<path d="M166.457 87.1713H196.472" stroke="#324893" stroke-width="1.8" stroke-miterlimit="10" stroke-linecap="round" stroke-linejoin="round"/>
<path d="M166.457 199.964H210.891" stroke="#324893" stroke-width="1.8" stroke-miterlimit="10" stroke-linecap="round" stroke-linejoin="round"/>
<path d="M166.457 206.148H210.891" stroke="#324893" stroke-width="1.8" stroke-miterlimit="10" stroke-linecap="round" stroke-linejoin="round"/>
<path d="M166.457 212.333H196.472" stroke="#324893" stroke-width="1.8" stroke-miterlimit="10" stroke-linecap="round" stroke-linejoin="round"/>
<path d="M166.457 135.763H204.417" stroke="#324893" stroke-width="1.8" stroke-miterlimit="10" stroke-linecap="round" stroke-linejoin="round"/>
<path d="M166.457 141.948H210.891" stroke="#324893" stroke-width="1.8" stroke-miterlimit="10" stroke-linecap="round" stroke-linejoin="round"/>
<path d="M166.457 148.132H204.417" stroke="#324893" stroke-width="1.8" stroke-miterlimit="10" stroke-linecap="round" stroke-linejoin="round"/>
<path d="M117.202 82.7539L125.147 88.9383L141.332 73.33" stroke="#3741F5" stroke-width="2.5" stroke-miterlimit="10" stroke-linecap="round" stroke-linejoin="round"/>
<path d="M117.202 143.126L125.147 149.31L141.332 133.702" stroke="#3741F5" stroke-width="2.5" stroke-miterlimit="10" stroke-linecap="round" stroke-linejoin="round"/>
<path d="M117.202 205.265L125.147 211.744L141.332 195.841" stroke="#3741F5" stroke-width="2.5" stroke-miterlimit="10" stroke-linecap="round" stroke-linejoin="round"/>
<g style="mix-blend-mode:multiply" opacity="0.25">
<path d="M131 254C195.065 254 247 202.065 247 138C247 73.935 195.065 22 131 22C66.935 22 15 73.935 15 138C15 202.065 66.935 254 131 254Z" fill="url(#paint0_radial)"/>
<path d="M131 254C195.065 254 247 202.065 247 138C247 73.935 195.065 22 131 22C66.935 22 15 73.935 15 138C15 202.065 66.935 254 131 254Z" fill="url(#paint1_linear)"/>
</g>
<path fill-rule="evenodd" clip-rule="evenodd" d="M247 138C247 202.065 195.065 254 131 254C66.935 254 15 202.065 15 138C15 136.325 15.0355 134.658 15.1058 133H15V138V261H247V138ZM246.894 133H247V138C247 136.325 246.964 134.658 246.894 133Z" fill="white"/>
<path d="M63.7323 106C63.7323 106 51.6276 125.383 46.7858 137.497C36.6985 162.129 33.4706 188.78 39.9264 214.624C41.9439 222.296 44.7683 229.565 52.4346 232.391C70.9951 239.256 80.6789 216.239 83.0998 202.51C86.3278 184.338 85.1173 164.956 79.8719 147.188C76.2405 133.055 69.3812 119.729 63.7323 106Z" fill="#FF746F"/>
<path d="M58.8907 231.18C58.8907 231.18 55.6628 163.744 63.7326 112.057" stroke="#E83B19" stroke-miterlimit="10"/>
<path d="M6.10352e-05 166.021C22.999 163.598 43.9805 178.135 56.4887 196.306C64.155 207.613 72.6283 226.592 65.7689 239.917C62.1375 247.186 53.6642 250.82 45.9979 250.416C36.3142 249.609 29.0513 242.744 25.8234 233.86C24.2095 229.015 23.4025 224.169 22.192 219.323C19.3676 202.767 10.8943 181.769 6.10352e-05 166.021Z" fill="#D7E0FF"/>
<path d="M2.42078 166.828C2.42078 166.828 58.5059 195.095 49.2256 247.589" stroke="#90A4E9" stroke-linecap="round" stroke-linejoin="round"/>
<path d="M58.2991 255.071C58.2991 255.071 44.8279 249.032 49.9377 236.955C55.0475 224.878 64.338 229.058 64.338 229.058C64.338 229.058 58.2991 206.762 77.3448 207.227C95.4613 207.691 94.9968 218.375 94.9968 218.375C94.9968 218.375 110.326 210.014 116.365 222.091C119.152 228.129 116.365 236.491 116.365 236.491C116.365 236.491 131.694 234.633 131.694 242.529C132.159 255.535 120.081 256 120.081 256C120.081 256 75.4867 255.071 58.2991 255.071Z" fill="#00BA93"/>
<path d="M277.864 269.997C274.071 272.132 269.331 270.709 267.197 267.15L236.62 213.302L221.924 187.445L235.435 179.854L240.887 189.58L280.708 259.559C282.841 263.118 281.656 267.862 277.864 269.997Z" fill="#FF746F"/>
<g style="mix-blend-mode:darken" opacity="0.15">
<path d="M248.946 142.137C248.946 166.333 229.272 186.022 205.095 186.022C180.918 186.022 161.481 166.333 161.481 142.137C161.481 117.941 181.155 98.2516 205.095 98.2516C229.035 98.2516 248.946 117.941 248.946 142.137Z" fill="#3741F5"/>
</g>
<path d="M236.62 213.065L221.924 187.208L235.435 179.617L240.887 189.343C238.754 194.799 236.146 203.101 236.62 213.065Z" fill="#E83B19"/>
<path d="M205.095 89C175.94 89 152 112.722 152 142.137C152 171.552 175.703 195.273 205.095 195.273C234.25 195.273 258.19 171.552 258.19 142.137C258.19 112.722 234.487 89 205.095 89ZM205.095 185.785C180.918 185.785 161.481 166.096 161.481 141.899C161.481 117.703 181.155 98.0143 205.095 98.0143C229.035 98.0143 248.946 117.703 248.946 141.899C248.946 166.096 229.272 185.785 205.095 185.785Z" fill="#3741F5"/>
<defs>
<radialGradient id="paint0_radial" cx="0" cy="0" r="1" gradientUnits="userSpaceOnUse" gradientTransform="translate(131 138) rotate(90) scale(116)">
<stop offset="0.807292" stop-color="white"/>
<stop offset="1" stop-color="#2E76A3"/>
</radialGradient>
<linearGradient id="paint1_linear" x1="135" y1="22" x2="131" y2="254" gradientUnits="userSpaceOnUse">
<stop offset="0.474893" stop-color="white"/>
<stop offset="1" stop-color="white" stop-opacity="0"/>
</linearGradient>
</defs>
</svg>
